…
Using these specific values you can select parts of the dataset based on different attributes. To select only observations of female owls:


```r
filter(dat, SEX == 'F')
```

```
## Warning: package 'bindrcpp' was built under R version 3.3.2
```

```
## # A tibble: 217 x 13
##     Year  Site      band  Wing  Tail weight  BILL       Date ordinal_date
##    <dbl> <chr>     <chr> <int> <int>  <dbl> <dbl>      <chr>        <dbl>
##  1  2011  POWA 101412236   140    70   95.0  10.2      40853          309
##  2  2010  POWA 101412209   143    70  100.7  10.6      40489          310
##  3  2010  POWA 101412210   141    71  101.6  10.6      40489          310
##  4  2011  POWA 101412246   139    70   92.5  11.6      40859          315
##  5  2009  POWA  92408883   136    64  102.9  10.5 11/14/2009          317
##  6  2011  POWA  92430384   141    71   98.3  10.3      40867          323
##  7  2008  POWA  92408856   137    67   90.7  10.7      39459           11
##  8  2008  POWA  92408858   132    69   89.2  11.1      39465           17
##  9  2008  POWA  92408861   140    68   90.9  10.4      39474           26
## 10  2008  POWA  92408863   140    66   87.6   9.9      39481           33
## # ... with 207 more rows, and 4 more variables: ordinal_date2 <dbl>,
## #   AGE <chr>, SEX <chr>, Age2 <chr>
```

Using the `filter()` you can easily specify additional filters, such as after-second-year birds:


```r
filter(dat, SEX == 'F', AGE == 'ASY')
```

```
## # A tibble: 53 x 13
##     Year  Site      band  Wing  Tail weight  BILL       Date ordinal_date
##    <dbl> <chr>     <chr> <int> <int>  <dbl> <dbl>      <chr>        <dbl>
##  1  2011  POWA 101412236   140    70   95.0  10.2      40853          309
##  2  2010  POWA 101412209   143    70  100.7  10.6      40489          310
##  3  2010  POWA 101412210   141    71  101.6  10.6      40489          310
##  4  2011  POWA 101412246   139    70   92.5  11.6      40859          315
##  5  2009  POWA  92408883   136    64  102.9  10.5 11/14/2009          317
##  6  2011  POWA  92430384   141    71   98.3  10.3      40867          323
##  7  2008  POWA  92408856   137    67   90.7  10.7      39459           11
##  8  2008  POWA  92408858   132    69   89.2  11.1      39465           17
##  9  2008  POWA  92408861   140    68   90.9  10.4      39474           26
## 10  2008  POWA  92408863   140    66   87.6   9.9      39481           33
## # ... with 43 more rows, and 4 more variables: ordinal_date2 <dbl>,
## #   AGE <chr>, SEX <chr>, Age2 <chr>
```
…
